{
  "file_generated_by": "FlutterFire CLI",
  "purpose": "FirebaseAppID & ProjectID for this Firebase app in this directory",
  "GOOGLE_APP_ID": "1:1004828921205:ios:3d53ec497b64c959ad973c",
  "FIREBASE_PROJECT_ID": "fir-para-flutter-c5ed5",
  "GCM_SENDER_ID": "1004828921205"
}